Chapter 13 A Study of Prostate Cancer | Data Science for Biological, Medical and Health Research: Notes for 432
…
            Data Science for Biological, Medical and Health Research: Notes for 432

Chapter 13 A Study of Prostate Cancer

13.1 Data Load and Background

The data in prost.csv is derived from Stamey and others (1989) who examined the relationship between the level of prostate-specific antigen and a number of clinical measures in 97 men who were about to receive a radical prostatectomy. The prost data, as I’ll name it in R, contains 97 rows and 11 columns.

prost

# A tibble: 97 x 10
   subject   lpsa lcavol lweight   age bph      svi   lcp gleason pgg45
     <dbl>  <dbl>  <dbl>   <dbl> <dbl> <chr>  <dbl> <dbl> <chr>   <dbl>
 1       1 -0.431 -0.580    2.77    50 Low        0 -1.39 6           0
 2       2 -0.163 -0.994    3.32    58 Low        0 -1.39 6           0
 3       3 -0.163 -0.511    2.69    74 Low        0 -1.39 7          20
 4       4 -0.163 -1.20     3.28    58 Low        0 -1.39 6           0
 5       5  0.372  0.751    3.43    62 Low        0 -1.39 6           0
 6       6  0.765 -1.05     3.23    50 Low        0 -1.39 6           0
 7       7  0.765  0.737    3.47    64 Medium     0 -1.39 6           0
 8       8  0.854  0.693    3.54    58 High       0 -1.39 6           0
 9       9  1.05  -0.777    3.54    47 Low        0 -1.39 6           0
10      10  1.05   0.223    3.24    63 Low        0 -1.39 6           0
# ... with 87 more rows
…
