Chapter 9 Adding Non-linear Terms to a Linear Regression Model | Data Science for Biological, Medical and Health Research: Notes for 432
…
            Data Science for Biological, Medical and Health Research: Notes for 432

Chapter 9 Adding Non-linear Terms to a Linear Regression Model

9.1 The pollution data

Consider the pollution data set, which contain 15 independent variables and a measure of mortality, describing 60 US metropolitan areas in 1959-1961. The data come from McDonald and Schwing (1973), and are available at http://www4.stat.ncsu.edu/~boos/var.select/pollution.html and our web site.

pollution

# A tibble: 60 x 16
      x1    x2    x3    x4    x5    x6    x7    x8    x9   x10   x11   x12   x13
   <dbl> <dbl> <dbl> <dbl> <dbl> <dbl> <dbl> <dbl> <dbl> <dbl> <dbl> <dbl> <dbl>
 1    36    27    71   8.1  3.34  11.4  81.5  3243   8.8  42.6  11.7    21    15
 2    35    23    72  11.1  3.14  11    78.8  4281   3.5  50.7  14.4     8    10
 3    44    29    74  10.4  3.21   9.8  81.6  4260   0.8  39.4  12.4     6     6
 4    47    45    79   6.5  3.41  11.1  77.5  3125  27.1  50.2  20.6    18     8
 5    43    35    77   7.6  3.44   9.6  84.6  6441  24.4  43.7  14.3    43    38
 6    53    45    80   7.7  3.45  10.2  66.8  3325  38.5  43.1  25.5    30    32
 7    43    30    74  10.9  3.23  12.1  83.9  4679   3.5  49.2  11.3    21    32
 8    45    30    73   9.3  3.29  10.6  86    2140   5.3  40.4  10.5     6     4
 9    36    24    70   9    3.31  10.5  83.2  6582   8.1  42.5  12.6    18    12
10    36    27    72   9.5  3.36  10.7  79.3  4213   6.7  41    13.2    12     7
# ... with 50 more rows, and 3 more variables: x14 <dbl>, x15 <dbl>, y <dbl>
…
