Chapter 6 Analysis of Variance | Data Science for Biological, Medical and Health Research: Notes for 432
…
            Data Science for Biological, Medical and Health Research: Notes for 432

Chapter 6 Analysis of Variance

6.1 The bonding data: A Designed Dental Experiment

The bonding data describe a designed experiment into the properties of four different resin types (resin = A, B, C, D) and two different curing light sources (light = Halogen, LED) as they relate to the resulting bonding strength (measured in MPa5) on the surface of teeth. The source is Kim (2014).

The experiment involved making measurements of bonding strength under a total of 80 experimental setups, or runs, with 10 runs completed at each of the eight combinations of a light source and a resin type. The data are gathered in the bonding.csv file.

bonding

# A tibble: 80 x 4
   run_ID light   resin strength
   <chr>  <chr>   <chr>    <dbl>
 1 R101   LED     B         12.8
 2 R102   Halogen B         22.2
 3 R103   Halogen B         24.6
 4 R104   LED     A         17  
 5 R105   LED     C         32.2
 6 R106   Halogen B         27.1
 7 R107   LED     A         23.4
 8 R108   Halogen A         23.5
 9 R109   Halogen D         37.3
10 R110   Halogen A         19.7
# ... with 70 more rows
…
waist
waist circumference at baseline (in inches)

sex
male or female

cort.1
salivary cortisol level (microg/l) week 1

cort.5
salivary cortisol level (microg/l) week 5

cortisol

# A tibble: 156 x 6
   subject interv waist sex   cort.1 cort.5
     <dbl> <chr>  <dbl> <chr>  <dbl>  <dbl>
 1    1001 UC      48.3 M       13.4   13.3
 2    1002 Low     58.3 M       17.8   16.6
 3    1003 High    43   M       14.4   12.7
 4    1004 Low     44.9 M        9      9.8
 5    1005 High    46.1 M       14.2   14.2
 6    1006 UC      41.3 M       14.8   15.1
 7    1007 Low     51   F       13.7   16  
 8    1008 UC      42   F       17.3   18.7
 9    1009 Low     24.7 F       15.3   15.8
10    1010 Low     59.4 M       12.4   11.7
# ... with 146 more rows
…
