Chapter 2 BRFSS SMART Data Building | Data Science for Biological, Medical and Health Research: Notes for 432
…
2.5.10.17 bmi is calculated from height_m and weight_kg

We’ll calculate body-mass index from height and weight.

smart_ohio_raw <- smart_ohio_raw %>% 
    mutate(bmi = round(weight_kg/(height_m)^2,2))

smart_ohio_raw %>% count(height_m, weight_kg, bmi)# %>% tail()

# A tibble: 1,806 x 4
   height_m weight_kg   bmi     n
      <dbl>     <dbl> <dbl> <int>
 1     1.35      39.0  21.4     1
 2     1.35      52.2  28.6     1
 3     1.4       89.8  45.8     1
 4     1.42      31.8  15.8     1
 5     1.42      45.4  22.5     1
 6     1.42      55.8  27.7     1
 7     1.42      58.5  29.0     1
 8     1.42      59.9  29.7     1
 9     1.42      60.8  30.1     1
10     1.42      71.2  35.3     1
# ... with 1,796 more rows
…
BLANK = Not asked or Missing

We’re going to convert this to a single numeric value. Answers in days per week (in the past 7 days) will be converted (after rounding) to days in the past 30. This is a little bit of a mess, really, but we can do it.

smart_ohio_raw <- smart_ohio_raw %>% 
    mutate(alcdays = as.numeric(ALCDAY5)) %>%
    mutate(alcdays = replace(alcdays, alcdays == 888, 0),
           alcdays = replace(alcdays, alcdays %in% c(777, 999), NA)) %>%
    mutate(alcdays = case_when(ALCDAY5 > 199 & ALCDAY5 < 231 ~ ALCDAY5 - 200,
                               ALCDAY5 > 100 & ALCDAY5 < 108 ~ round((ALCDAY5 - 100)*30/7,0),
                               TRUE ~ alcdays))

smart_ohio_raw %>% count(ALCDAY5, alcdays)

# A tibble: 39 x 3
   ALCDAY5 alcdays     n
     <dbl>   <dbl> <int>
 1     101       4   263
 2     102       9   197
 3     103      13   142
 4     104      17    76
 5     105      21    53
 6     106      26    18
 7     107      30   114
 8     201       1   621
 9     202       2   448
10     203       3   233
# ... with 29 more rows
…
I want a quantitative age variable, so I’m going to create an imputed age_imp value for each subject based on their agegroup. For each age group, I will assume that each of the ages represented by a value in that age group will be equally likely, and will draw from the relevant uniform distribution to impute age.

set.seed(2020432002)

smart_ohio_raw <- smart_ohio_raw %>%
    mutate(age_low = as.numeric(str_sub(as.character(agegroup), 1, 2))) %>%
    mutate(age_high = as.numeric(str_sub(as.character(agegroup), 4, 5))) %>%
    rowwise() %>%
    mutate(age_imp = ifelse(!is.na(agegroup), 
                            round(runif(1, min = age_low, max = age_high),0),
                            NA)) 

smart_ohio_raw %>% count(agegroup, age_imp) #%>% tail()

# A tibble: 80 x 3
# Rowwise: 
   agegroup age_imp     n
   <fct>      <dbl> <int>
 1 18-24         18    46
 2 18-24         19    75
 3 18-24         20    76
 4 18-24         21    82
 5 18-24         22    80
 6 18-24         23    54
 7 18-24         24    35
 8 25-29         25    42
 9 25-29         26    93
10 25-29         27    77
# ... with 70 more rows
…
