Chapter 3 Dealing with Missingness: Single Imputation | Data Science for Biological, Medical and Health Research: Notes for 432
…
Use miss_case_summary to specify individual observations and count their missing values.

miss_case_summary(smart_cle1)

# A tibble: 1,133 x 3
    case n_miss pct_miss
   <int>  <int>    <dbl>
 1    17      6     50  
 2    42      6     50  
 3   254      6     50  
 4   425      6     50  
 5   521      6     50  
 6   729      6     50  
 7   757      6     50  
 8  1051      6     50  
 9    89      5     41.7
10    94      5     41.7
# ... with 1,123 more rows
…
Continuing the Wikipedia example, if men failed to fill in a depression survey because of their level of depression, then this would be MNAR.

Single imputation is most helpful in the MAR situation, although it is also appropriate when we assume MCAR.

Multiple imputation will, similarly, be more helpful in MCAR and MAR situations than when data are missing NOT at random.

It’s worth noting that many people are unwilling to impute values for outcomes or key predictors in a modeling setting, but are happy to impute for less important covariates. For now, we’ll assume MCAR or MAR for all of the missingness in our smart_cle1 data, which will allow us to adopt a single imputation strategy.

3.9.2 Single imputation into smart_cle1_sh

Which variables in smart_cle1_sh contain missing data?

miss_var_summary(smart_cle1_sh)

# A tibble: 24 x 3
   variable   n_miss pct_miss
   <chr>       <int>    <dbl>
 1 activity      109    9.62 
 2 veg_day       101    8.91 
 3 bmi            91    8.03 
 4 drinks_wk      66    5.83 
 5 smoke100       40    3.53 
 6 race_eth       26    2.29 
 7 physhealth     24    2.12 
 8 age_imp        11    0.971
 9 internet30      7    0.618
10 genhealth       4    0.353
# ... with 14 more rows
…
