Chapter 20 Modeling an Ordinal Categorical Outcome in Ohio SMART | Data Science for Biological, Medical and Health Research: Notes for 432
…
20.3.3 Storing a table in a tibble

We can store the elements of a cross-tabulation in a tibble, like this:

(sm1.tableA <- sm1 %>% count(incomegroup, genh))

# A tibble: 40 x 3
   incomegroup genh      n
   <fct>       <ord> <int>
 1 0-9K        1-E      14
 2 0-9K        2_VG     45
 3 0-9K        3_G      60
 4 0-9K        4_F      74
 5 0-9K        5_P      40
 6 10-14K      1-E      12
 7 10-14K      2_VG     41
 8 10-14K      3_G      66
 9 10-14K      4_F      93
10 10-14K      5_P      46
# ... with 30 more rows
…
