Chapter 14 Multiple Imputation and Linear Regression | Data Science for Biological, Medical and Health Research: Notes for 432
…
14.8 Running the Linear Regression in lm with Multiple Imputation

Next, we’ll run the linear model (main effects) on each of the 10 imputed data sets.

m10_mods <- 
    with(smart_16_mice10, lm(phys_tr ~ age_imp + comor + 
                                 smoke100 + hx_depress + 
                                 bmi + activity))

summary(m10_mods)

# A tibble: 90 x 6
   term                          estimate std.error statistic  p.value  nobs
   <chr>                            <dbl>     <dbl>     <dbl>    <dbl> <int>
 1 (Intercept)                    0.317     0.326       0.971 3.32e- 1  1057
 2 age_imp                       -0.00489   0.00334    -1.47  1.43e- 1  1057
 3 comor                          0.313     0.0295     10.6   4.72e-25  1057
 4 smoke100                       0.135     0.0799      1.69  9.22e- 2  1057
 5 hx_depress                     0.500     0.0929      5.38  9.14e- 8  1057
 6 bmi                            0.0187    0.00564     3.31  9.64e- 4  1057
 7 activityActive                -0.202     0.138      -1.46  1.44e- 1  1057
 8 activityInsufficiently_Active -0.0695    0.124      -0.561 5.75e- 1  1057
 9 activityInactive               0.262     0.103       2.54  1.11e- 2  1057
10 (Intercept)                    0.363     0.332       1.10  2.74e- 1  1057
# ... with 80 more rows
…
