Chapter 4 Summarizing the smart_cle1 data | Data Science for Biological, Medical and Health Research: Notes for 432
…
4.2.2 What’s the distribution of physhealth?

We can count quantitative variables with discrete sets of possible values, like physhealth, which is captured as an integer (that must fall between 0 and 30.)

smart_cle1_sh %>% count(physhealth)

# A tibble: 21 x 2
   physhealth     n
 *      <dbl> <int>
 1          0   690
 2          1    49
 3          2    61
 4          3    39
 5          4    17
 6          5    43
 7          6    13
 8          7    18
 9          8     5
10         10    32
# ... with 11 more rows
…
