Chapter 10 Using ols from the rms package to fit linear models | Data Science for Biological, Medical and Health Research: Notes for 432
…
10.5.2 Using the residuals command for other summaries

The residuals command will also let you get ordinary residuals, leverage values and dffits values, which are the normalized differences in predicted values when observations are omitted. See ?residuals.ols for more details.

temp <- data.frame(area = 1:60)
temp$residual <- residuals(newmod, type = "ordinary")
temp$leverage <- residuals(newmod, type = "hat")
temp$dffits <- residuals(newmod, type = "dffits")
tbl_df(temp)

# A tibble: 60 x 4
    area residual leverage  dffits
   <int>    <dbl>    <dbl>   <dbl>
 1     1   -13.3    0.0929 -0.119 
 2     2    81.0    0.0941  0.766 
 3     3    28.8    0.266   0.539 
 4     4   -12.5    0.117  -0.128 
 5     5    27.8    0.204   0.419 
 6     6   -40.4    0.416  -1.20  
 7     7    37.0    0.207   0.568 
 8     8   -14.3    0.145  -0.169 
 9     9    66.6    0.0863  0.587 
10    10    -4.96   0.0997 -0.0460
# ... with 50 more rows
…
